{
  "viewerClass": "CSSStyleViewer",

  "adapterURIs": [
    "chrome://sepsis-inspector/content/adapters/declarationRuleAdapter.js",
    "chrome://sepsis-inspector/content/adapters/styleSheetRuleListAdapter.js"
  ],

  "scriptURI": "chrome://sepsis-inspector/content/viewers/cssStyle/infoscript.js",

  "viewerURI": "chrome://sepsis-inspector/content/viewers/cssStyle/cssStyle.xul"
}
