{
  "viewerClass": "ObserverServiceViewer",

  "canInspectApplication": true,

  "interfaceFilter": [
    "nsIObserverService"
  ],

  "stringBundle": "chrome://sepsis-inspector/locale/viewers/observerService.properties",

  "viewerURI": "chrome://sepsis-inspector/content/viewers/observerService/observerService.xul"
}
