{
  "viewerClass": "ObjectDetailsViewer",

  "wantsSynthetic": true,

  "syntheticFilter": [
     "org.mozilla.sepsis.inspector.synthetic.objectDetails"
  ],

  "adapterURIs": [
    "chrome://sepsis-inspector/content/adapters/objectDetailsAdapter.js"
  ],

  "stringBundle": "chrome://sepsis-inspector/locale/viewers/objectDetails.properties",

  "viewerURI": "chrome://sepsis-inspector/content/viewers/objectDetails/objectDetails.html"
}
